{"results":[{"popularity":143.771,"vote_count":56,"video":false,"poster_path":"\/goEW6QqoFxNI2pfbpVqmXj2WXwd.jpg","id":531876,"adult":false,"backdrop_path":"\/n1RohH2VoK1CdVI2fXvcP19dSlm.jpg","original_language":"en","original_title":"The Outpost","genre_ids":[28,18,36,10752],"title":"The Outpost","vote_average":6.7,"overview":"A small unit of U.S. soldiers, alone at the remote Combat Outpost Keating, located deep in the valley of three mountains in Afghanistan, battles to defend against an overwhelming force of Taliban fighters in a coordinated attack. The Battle of Kamdesh, as it was known, was the bloodiest American engagement of the Afghan War in 2009 and Bravo Troop 3-61 CAV became one of the most decorated units of the 19-year conflict.","release_date":"2020-06-24"},{"popularity":104.744,"vote_count":131,"video":false,"poster_path":"\/hoUzSMxGu4Bm73EvH6B3iceFwW8.jpg","id":706510,"adult":false,"backdrop_path":"\/k8H6Qp4uJ9WHArPQwDqCaW9g3Sj.jpg","original_language":"en","original_title":"Desperados","genre_ids":[35,10749],"title":"Desperados","vote_average":6.5,"overview":"A panicked young woman and her two best friends fly to Mexico to delete a ranting email she sent to her new boyfriend. On arrival, they run into her former beau, who soon gets caught up in their frantic scheme.","release_date":"2020-07-03"},{"popularity":107.625,"vote_count":590,"video":false,"poster_path":"\/tI8ocADh22GtQFV28vGHaBZVb0U.jpg","id":475430,"adult":false,"backdrop_path":"\/o0F8xAt8YuEm5mEZviX5pEFC12y.jpg","original_language":"en","original_title":"Artemis Fowl","genre_ids":[12,14,878,10751],"title":"Artemis Fowl","vote_average":5.9,"overview":"Artemis Fowl is a 12-year-old genius and descendant of a long line of criminal masterminds. He soon finds himself in an epic battle against a race of powerful underground fairies who may be behind his father's disappearance.","release_date":"2020-06-12"},{"popularity":63.018,"vote_count":326,"video":false,"poster_path":"\/9zrbgYyFvwH8sy5mv9eT25xsAzL.jpg","id":531454,"adult":false,"backdrop_path":"\/jMO1icztaUUEUApdAQx0cZOt7b8.jpg","original_language":"en","original_title":"Eurovision Song Contest: The Story of Fire Saga","genre_ids":[35,10402],"title":"Eurovision Song Contest: The Story of Fire Saga","vote_average":6.5,"overview":"Two small-town aspiring musicians chase their pop star dreams at a global music competition, where high stakes, scheming rivals and onstage mishaps test their bond.","release_date":"2020-06-26"},{"popularity":61.107,"vote_count":2778,"video":false,"poster_path":"\/8WUVHemHFH2ZIP6NWkwlHWsyrEL.jpg","id":338762,"adult":false,"backdrop_path":"\/lP5eKh8WOcPysfELrUpGhHJGZEH.jpg","original_language":"en","original_title":"Bloodshot","genre_ids":[28,878],"title":"Bloodshot","vote_average":7,"overview":"After he and his wife are murdered, marine Ray Garrison is resurrected by a team of scientists. Enhanced with nanotechnology, he becomes a superhuman, biotech killing machine—'Bloodshot'. As Ray first trains with fellow super-soldiers, he cannot recall anything from his former life. But when his memories flood back and he remembers the man that killed both him and his wife, he breaks out of the facility to get revenge, only to discover that there's more to the conspiracy than he thought.","release_date":"2020-03-05"},{"popularity":57.014,"vote_count":2474,"video":false,"poster_path":"\/f4aul3FyD3jv3v4bul1IrkWZvzq.jpg","id":508439,"adult":false,"backdrop_path":"\/xFxk4vnirOtUxpOEWgA1MCRfy6J.jpg","original_language":"en","original_title":"Onward","genre_ids":[12,16,35,14,10751],"title":"Onward","vote_average":7.9,"overview":"In a suburban fantasy world, two teenage elf brothers embark on an extraordinary quest to discover if there is still a little magic left out there.","release_date":"2020-02-29"},{"popularity":69.389,"vote_count":1175,"video":false,"poster_path":"\/jHo2M1OiH9Re33jYtUQdfzPeUkx.jpg","id":385103,"adult":false,"backdrop_path":"\/fKtYXUhX5fxMxzQfyUcQW9Shik6.jpg","original_language":"en","original_title":"Scoob!","genre_ids":[12,16,35,9648,10751],"title":"Scoob!","vote_average":8,"overview":"In Scooby-Doo’s greatest adventure yet, see the never-before told story of how lifelong friends Scooby and Shaggy first met and how they joined forces with young detectives Fred, Velma, and Daphne to form the famous Mystery Inc. Now, with hundreds of cases solved, Scooby and the gang face their biggest, toughest mystery ever: an evil plot to unleash the ghost dog Cerberus upon the world. As they race to stop this global “dogpocalypse,” the gang discovers that Scooby has a secret legacy and an epic destiny greater than anyone ever imagined.","release_date":"2020-05-15"},{"popularity":41.385,"vote_count":1055,"video":false,"poster_path":"\/wxPhn4ef1EAo5njxwBkAEVrlJJG.jpg","id":514847,"adult":false,"backdrop_path":"\/naXUDz0VGK7aaPlEpsuYW8kNVsr.jpg","original_language":"en","original_title":"The Hunt","genre_ids":[28,27,53],"title":"The Hunt","vote_average":6.7,"overview":"Twelve strangers wake up in a clearing. They don't know where they are—or how they got there. In the shadow of a dark internet conspiracy theory, ruthless elitists gather at a remote location to hunt humans for sport. But their master plan is about to be derailed when one of the hunted turns the tables on her pursuers.","release_date":"2020-03-11"},{"popularity":45.743,"vote_count":53,"video":false,"poster_path":"\/ucktgbaMSaETUDLUBp1ubGD6aNj.jpg","id":619592,"adult":false,"backdrop_path":"\/eIqyISB5j99OSRZUuvdN9g2bBsS.jpg","original_language":"en","original_title":"Force of Nature","genre_ids":[28,18],"title":"Force of Nature","vote_average":5.6,"overview":"A gang of thieves plan a heist during a hurricane and encounter trouble when a disgraced cop tries to force everyone in the building to evacuate.","release_date":"2020-07-02"},{"popularity":62.131,"vote_count":1,"video":false,"poster_path":"\/hnNjlXAQan8WdNtQMfdldAGoqMF.jpg","id":529149,"adult":false,"backdrop_path":"\/A47BxbWFfQAKvVsZwiMuuF34s9R.jpg","original_language":"en","original_title":"Darlin'","genre_ids":[27,9648],"title":"Darlin'","vote_average":8,"overview":"Found at a Catholic hospital filthy and ferocious, feral teenager Darlin’ is whisked off to a care home run by The Bishop and his obedient nuns, where she’s to be rehabilitated into a \"good girl\" as an example of the miraculous work of the church. But Darlin’ holds a secret darker than the \"sins\" she is threatened with, and she is not traveling alone. The Woman who raised her, equally fierce and feral, is ever present in the shadows of Darlin’s psyche and is determined to come for her no matter who tries to get in her way.","release_date":"2020-07-10"},{"popularity":34.407,"vote_count":0,"video":false,"poster_path":"\/9uY8zhNeDk77Mwuy2DP4zjS3YTq.jpg","id":522444,"adult":false,"backdrop_path":"\/81Aux0tOfORrWOJeMDx0m3VIB95.jpg","original_language":"en","original_title":"Black Water: Abyss","genre_ids":[12,27,53],"title":"Black Water: Abyss","vote_average":0,"overview":"An adventure-loving couple convince their friends to explore a remote, uncharted cave system in the forests of Northern Australia. With a tropical storm approaching, they abseil into the mouth of the cave, but when the caves start to flood, tensions rise as oxygen levels fall and the friends find themselves trapped. Unknown to them, the storm has also brought in a pack of dangerous and hungry crocodiles.","release_date":"2020-07-09"},{"popularity":43.156,"vote_count":1382,"video":false,"poster_path":"\/gzlbb3yeVISpQ3REd3Ga1scWGTU.jpg","id":443791,"adult":false,"backdrop_path":"\/ww7eC3BqSbFsyE5H5qMde8WkxJ2.jpg","original_language":"en","original_title":"Underwater","genre_ids":[28,27,878,53],"title":"Underwater","vote_average":6.4,"overview":"After an earthquake destroys their underwater station, six researchers must navigate two miles along the dangerous, unknown depths of the ocean floor to make it to safety in a race against time.","release_date":"2020-01-08"},{"popularity":31.987,"vote_count":1,"video":false,"poster_path":"\/edUTXJt84eUAEjwMWlBNnl4uVrM.jpg","id":548170,"adult":false,"backdrop_path":"\/f5CKvP1g2RzsNv4ppsUJRRJF8Ll.jpg","original_language":"en","original_title":"Guest of Honour","genre_ids":[18],"title":"Guest of Honour","vote_average":2,"overview":"Jim and his daughter Veronica, a young high-school music teacher, attempt to unravel their complicated histories and intertwined secrets. After a hoax goes very wrong, Jim's daughter is falsely convicted of abusing her position of authority over 17-year-old Clive. Veronica is nevertheless convinced she deserves to be punished, but for much earlier crimes. Confused and frustrated by Veronica’s intransigence, Jim's anguish begins to impinge on his job as a food inspector. He wields great power over small family-owned restaurants; a power he doesn't hesitate to use.","release_date":"2020-07-09"},{"popularity":31.343,"vote_count":1232,"video":false,"poster_path":"\/gbPfvwBqbiHpQkYZQvVwB6MVauV.jpg","id":525661,"adult":false,"backdrop_path":"\/nj84vpuUWdbmYktBzjiWn5Ny1ZF.jpg","original_language":"en","original_title":"Bombshell","genre_ids":[18],"title":"Bombshell","vote_average":6.8,"overview":"Bombshell is a revealing look inside the most powerful and controversial media empire of all time; and the explosive story of the women who brought down the infamous man who created it.","release_date":"2019-12-13"},{"popularity":51.867,"vote_count":5,"video":false,"poster_path":"\/75gDv38UgRtAukSxNXcjatyQmEa.jpg","id":429422,"adult":false,"backdrop_path":"\/8YpXQS3zo25ZexQVkQyhsLlzINB.jpg","original_language":"en","original_title":"Capone","genre_ids":[80,18],"title":"Capone","vote_average":4.8,"overview":"The 47-year old Al Capone, after 10 years in prison, starts suffering from dementia and comes to be haunted by his violent past.","release_date":"2020-07-10"},{"popularity":39.298,"vote_count":17344,"video":false,"poster_path":"\/f89U3ADr1oiB1s9GkdPOEpXUk5H.jpg","id":603,"adult":false,"backdrop_path":"\/ByDf0zjLSumz1MP1cDEo2JWVtU.jpg","original_language":"en","original_title":"The Matrix","genre_ids":[28,878],"title":"The Matrix","vote_average":8.1,"overview":"Set in the 22nd century, The Matrix tells the story of a computer hacker who joins a group of underground insurgents fighting the vast and powerful computers who now rule the earth.","release_date":"1999-03-30"},{"popularity":31.151,"vote_count":1,"video":false,"poster_path":"\/g0GLJ7hRTMwBAbFq5Zkm90kUByz.jpg","id":623266,"adult":false,"backdrop_path":"\/gpjVRuvgcFaZ14cN4HIHtZE33Ki.jpg","original_language":"en","original_title":"The Artist's Wife","genre_ids":[18],"title":"The Artist's Wife","vote_average":2,"overview":"Claire, happily married to famed artist Richard, notices changes in her husband’s behaviour as his final art show approaches. When Richard is diagnosed with Alzheimer’s disease, Claire and her husband find their bonds thoroughly tested. Her husband’s struggle to stay connected to who he once was is frightening, heartbreaking, and inspiring.","release_date":"2020-07-09"},{"popularity":33.417,"vote_count":1933,"video":false,"poster_path":"\/kTQ3J8oTTKofAVLYnds2cHUz9KO.jpg","id":522938,"adult":false,"backdrop_path":"\/3IHqwENGxOb36Jgeot4XHs3BTxz.jpg","original_language":"en","original_title":"Rambo: Last Blood","genre_ids":[28,18,53],"title":"Rambo: Last Blood","vote_average":6.3,"overview":"After fighting his demons for decades, John Rambo now lives in peace on his family ranch in Arizona, but his rest is interrupted when Gabriela, the granddaughter of his housekeeper María, disappears after crossing the border into Mexico to meet her biological father. Rambo, who has become a true father figure for Gabriela over the years, undertakes a desperate and dangerous journey to find her.","release_date":"2019-09-19"},{"popularity":33.433,"vote_count":22,"video":false,"poster_path":"\/aINpljdt3VVMrCLtJW4BektwYOp.jpg","id":522098,"adult":false,"backdrop_path":"\/cjAirCV9TyTQcp7mFNRnvgkoVFV.jpg","original_language":"en","original_title":"Babyteeth","genre_ids":[35,18],"title":"Babyteeth","vote_average":5.2,"overview":"A terminally ill teen upsets her parents when she falls in love with a small-time drug dealer.","release_date":"2020-06-18"},{"popularity":45.405,"vote_count":0,"video":false,"poster_path":"\/nRYx4zpDhGuM85ESFbAhzmAWoEn.jpg","id":717514,"adult":false,"backdrop_path":"\/kFlMEOyXqaeZzFLSZrStYx1TRq3.jpg","original_language":"en","original_title":"Parallax","genre_ids":[878,53],"title":"Parallax","vote_average":0,"overview":"A young artist wakes up in a life that she doesn't recognize, spending her time asleep haunted by nightmares of drowning in a black abysmal void. As she begins to uncover the truths of the life that she's found herself in, the gravity of her failing reality weighs heavily on her psychological identity and the reliability of her sanity is called into question.","release_date":"2020-07-10"}],"page":1,"total_results":581,"dates":{"maximum":"2020-07-15","minimum":"2020-05-28"},"total_pages":30}